<svg width="200" height="29" viewBox="0 0 200 29" fill="none" xmlns="http://www.w3.org/2000/svg">
<g clip-path="url(#clip0)">
<path d="M54.3317 21.9347C54.4635 21.811 54.6383 21.7448 54.818 21.7507C54.9977 21.7565 55.1678 21.8338 55.2915 21.9658C55.8392 22.6026 56.5126 23.1164 57.2684 23.4741C58.0241 23.8318 58.8455 24.0255 59.6797 24.0428C61.3016 24.0428 63.1287 23.347 63.1287 22.0593C63.1287 20.6626 61.9585 19.9824 59.536 19.4631C56.1281 18.7622 53.7159 17.3862 53.7159 14.3746C53.7159 12.0433 56.0254 9.74304 59.5719 9.74304C61.5141 9.75251 63.3931 10.4424 64.8891 11.6954C64.9583 11.7522 65.0158 11.8223 65.0581 11.9017C65.1005 11.981 65.127 12.0681 65.136 12.1578C65.1451 12.2475 65.1366 12.3381 65.1109 12.4245C65.0853 12.5109 65.0431 12.5913 64.9867 12.6611C64.9743 12.6763 64.9605 12.6902 64.9456 12.7027L63.9961 13.7048C63.8772 13.8264 63.7179 13.899 63.5492 13.9086C63.3804 13.9181 63.2141 13.864 63.0825 13.7567C62.092 12.912 60.8465 12.4339 59.5514 12.4015C57.4985 12.4015 56.513 13.4088 56.513 14.4525C56.513 15.6831 57.7551 16.3373 60.3726 16.8929C63.4059 17.5575 65.9823 18.705 65.9823 21.9814C65.9823 25.0968 62.7489 26.6805 59.6797 26.6805C58.4802 26.6733 57.2951 26.416 56.1983 25.9247C55.1015 25.4333 54.1167 24.7184 53.3053 23.8247C53.1855 23.6894 53.1228 23.5122 53.1305 23.3308C53.1381 23.1493 53.2156 22.9782 53.3463 22.8537L54.3317 21.9347Z" fill="#112857"/>
<path d="M83.9714 18.3208C83.9714 18.6376 83.9714 18.9491 83.9355 19.2658H71.1045C71.2738 21.7011 73.5783 23.939 76.5654 23.939C77.3719 23.9363 78.17 23.772 78.9135 23.4557C79.657 23.1393 80.3312 22.6771 80.8971 22.0957C81.0258 21.9676 81.199 21.8958 81.3796 21.8958C81.5601 21.8958 81.7334 21.9676 81.862 22.0957L82.7294 23.0199C82.8554 23.1483 82.9261 23.3219 82.9261 23.5028C82.9261 23.6837 82.8554 23.8573 82.7294 23.9857C81.1036 25.66 78.8902 26.6173 76.5705 26.6494C71.7512 26.6494 68.2765 22.9628 68.2765 18.1858C68.2765 13.4089 71.4432 9.72229 76.2266 9.72229C80.6662 9.75344 83.9714 13.1285 83.9714 18.3208ZM81.1435 16.8254C81.0218 15.6033 80.4458 14.4736 79.532 13.6648C78.6183 12.8561 77.4349 12.4286 76.2215 12.469C74.9931 12.4267 73.7934 12.8499 72.8573 13.6558C71.9212 14.4616 71.3162 15.5919 71.1609 16.8254H81.1435Z" fill="#112857"/>
<path d="M100.888 15.9219V25.5745C100.888 25.7568 100.817 25.9316 100.69 26.061C100.563 26.1903 100.391 26.2637 100.21 26.2651H98.6707C98.4906 26.2651 98.3177 26.193 98.1899 26.0647C98.062 25.9363 97.9895 25.7619 97.9881 25.5797V16.41C97.9881 13.6425 96.2996 12.469 94.1696 12.469C91.6034 12.469 90.2228 15.1898 90.2228 15.1898V25.5745C90.2214 25.7572 90.1491 25.9321 90.0214 26.0613C89.8936 26.1905 89.7208 26.2637 89.5402 26.2651H88.0004C87.8203 26.2651 87.6474 26.193 87.5196 26.0647C87.3917 25.9363 87.3192 25.7619 87.3178 25.5797V10.8438C87.3178 10.6606 87.3897 10.485 87.5178 10.3555C87.6458 10.226 87.8194 10.1532 88.0004 10.1532H89.3195C89.4121 10.1483 89.5047 10.1625 89.5917 10.195C89.6788 10.2274 89.7583 10.2775 89.8255 10.3422C89.8928 10.4068 89.9463 10.4846 89.9828 10.5708C90.0194 10.6571 90.0381 10.75 90.038 10.8438V12.4015C90.5543 11.5655 91.2755 10.879 92.1317 10.4086C92.9879 9.93816 93.9499 9.69993 94.9241 9.71705C98.0651 9.75339 100.888 11.9498 100.888 15.9219Z" fill="#112857"/>
<path d="M117.024 12.1575V2.21414C117.024 2.03188 117.095 1.85701 117.222 1.72765C117.349 1.59829 117.522 1.52493 117.702 1.52356H119.241C119.422 1.52492 119.595 1.59811 119.723 1.72733C119.85 1.85654 119.923 2.03141 119.924 2.21414V25.5797C119.923 25.7625 119.85 25.9373 119.723 26.0665C119.595 26.1958 119.422 26.269 119.241 26.2703H117.963C117.783 26.2689 117.611 26.1956 117.484 26.0662C117.357 25.9369 117.286 25.762 117.286 25.5797V23.9286C116.697 24.8141 115.894 25.5327 114.954 26.0162C114.013 26.4996 112.966 26.7319 111.912 26.6909C107.611 26.6909 104.214 22.968 104.214 18.2274C104.214 13.4867 107.627 9.76382 111.912 9.76382C112.89 9.73438 113.86 9.93532 114.747 10.3508C115.635 10.7662 116.414 11.3848 117.024 12.1575ZM117.024 15.2729C117.024 15.2729 115.484 12.4846 112.338 12.4846C109.192 12.4846 107.072 15.0808 107.072 18.2326C107.072 21.3843 109.125 23.9805 112.338 23.9805C115.551 23.9805 117.024 21.1922 117.024 21.1922V15.2729Z" fill="#112857"/>
<path d="M137.795 24.0843C136.313 25.6122 134.328 26.5361 132.216 26.6805C131.098 26.7324 129.98 26.5546 128.931 26.1578C127.883 25.761 126.924 25.1535 126.114 24.3719C125.303 23.5903 124.658 22.6507 124.216 21.6099C123.774 20.569 123.545 19.4484 123.542 18.3156C123.501 13.5438 127.027 9.76379 131.754 9.76379C133.922 9.77533 136.004 10.6198 137.58 12.1263C137.646 12.1872 137.699 12.2607 137.737 12.3425C137.774 12.4244 137.796 12.5129 137.8 12.6032C137.803 12.6934 137.79 12.7835 137.759 12.8683C137.728 12.9531 137.681 13.0309 137.621 13.0973C137.61 13.1136 137.596 13.1277 137.58 13.1388L136.599 14.0008C136.473 14.1139 136.311 14.1764 136.142 14.1764C135.974 14.1764 135.812 14.1139 135.686 14.0008C134.6 13.0193 133.195 12.4776 131.739 12.4794C128.536 12.4794 126.442 15.0756 126.442 18.2273C126.442 21.3791 128.531 23.9597 131.723 23.9597C132.505 23.9628 133.278 23.8077 134 23.5036C134.721 23.1995 135.374 22.7526 135.922 22.1891C136.05 22.061 136.224 21.9892 136.404 21.9892C136.585 21.9892 136.758 22.061 136.887 22.1891L137.769 23.1133C137.899 23.2392 137.975 23.4117 137.98 23.5935C137.984 23.7753 137.918 23.9517 137.795 24.0843Z" fill="#112857"/>
<path d="M141.829 1.52356H143.369C143.549 1.52493 143.721 1.59829 143.848 1.72765C143.975 1.85701 144.046 2.03188 144.046 2.21414V25.5797C144.046 25.762 143.975 25.9369 143.848 26.0662C143.721 26.1956 143.549 26.2689 143.369 26.2703H141.829C141.649 26.269 141.476 26.1958 141.348 26.0665C141.22 25.9373 141.148 25.7625 141.147 25.5797V2.21414C141.147 2.03188 141.218 1.85701 141.345 1.72765C141.472 1.59829 141.644 1.52493 141.824 1.52356H141.829Z" fill="#112857"/>
<path d="M164.063 18.217C164.063 22.9576 160.552 26.6805 155.851 26.6805C151.15 26.6805 147.639 22.9576 147.639 18.217C147.639 13.4763 151.155 9.75342 155.851 9.75342C160.547 9.75342 164.063 13.4815 164.063 18.217ZM161.173 18.217C161.173 15.0496 159.069 12.469 155.866 12.469C152.664 12.469 150.57 15.0652 150.57 18.217C150.57 21.3687 152.653 23.9649 155.866 23.9649C159.079 23.9649 161.173 21.3843 161.173 18.217Z" fill="#112857"/>
<path d="M167.358 20.4682V10.7949C167.359 10.7044 167.378 10.6151 167.414 10.5322C167.449 10.4492 167.501 10.3741 167.565 10.3114C167.63 10.2486 167.706 10.1994 167.789 10.1665C167.872 10.1337 167.961 10.1178 168.051 10.1199H169.59C169.762 10.1302 169.924 10.2052 170.043 10.3302C170.163 10.4552 170.232 10.6209 170.237 10.7949V19.9802C170.237 22.7425 171.92 23.916 174.061 23.916C176.74 23.916 178.008 21.2679 178.008 21.2679V10.7949C178.007 10.7049 178.024 10.6156 178.057 10.5322C178.091 10.4488 178.14 10.3728 178.202 10.3087C178.265 10.2446 178.339 10.1935 178.421 10.1585C178.503 10.1234 178.591 10.105 178.68 10.1043H180.22C180.397 10.111 180.564 10.1865 180.688 10.3152C180.811 10.4438 180.88 10.6157 180.882 10.7949V25.5256C180.882 25.7088 180.81 25.8844 180.682 26.0139C180.554 26.1434 180.38 26.2162 180.199 26.2162H178.88C178.699 26.2148 178.527 26.1416 178.399 26.0124C178.271 25.8832 178.199 25.7083 178.197 25.5256V23.729C177.707 24.6036 176.997 25.3316 176.139 25.8394C175.281 26.3473 174.305 26.6169 173.311 26.6212C170.181 26.6316 167.358 24.4404 167.358 20.4682Z" fill="#112857"/>
<path d="M197.121 12.1086V2.1652C197.12 2.07298 197.138 1.98157 197.173 1.89642C197.208 1.81128 197.259 1.73415 197.324 1.66968C197.39 1.6052 197.467 1.55469 197.552 1.52117C197.637 1.48766 197.728 1.47182 197.819 1.47462H199.358C199.539 1.47599 199.711 1.54935 199.838 1.67871C199.965 1.80807 200.036 1.98294 200.036 2.1652V25.5308C200.036 25.713 199.965 25.8879 199.838 26.0173C199.711 26.1466 199.539 26.22 199.358 26.2214H198.07C197.89 26.2214 197.717 26.1493 197.589 26.0209C197.461 25.8926 197.389 25.7182 197.388 25.536V23.8796C196.799 24.7644 195.997 25.4825 195.058 25.9659C194.118 26.4494 193.072 26.682 192.019 26.6419C187.713 26.6419 184.32 22.919 184.32 18.1784C184.32 13.4378 187.728 9.71488 192.019 9.71488C192.994 9.68787 193.963 9.88995 194.848 10.3053C195.733 10.7206 196.511 11.3378 197.121 12.1086ZM197.121 15.224C197.121 15.224 195.581 12.4357 192.435 12.4357C189.289 12.4357 187.169 15.0318 187.169 18.1836C187.169 21.3354 189.196 23.9315 192.435 23.9315C195.673 23.9315 197.121 21.1432 197.121 21.1432V15.224Z" fill="#112857"/>
<path d="M42.2654 19.3179C42.2613 16.9028 41.3784 14.5738 39.7852 12.7753C38.192 10.9767 36.0001 9.83453 33.6276 9.56662C32.858 6.81388 31.2213 4.39052 28.966 2.66477C26.7108 0.93901 23.9604 0.00518799 21.1327 0.00518799C18.305 0.00518799 15.5546 0.93901 13.2994 2.66477C11.0442 4.39052 9.40743 6.81388 8.63785 9.56662C6.26538 9.83453 4.07346 10.9767 2.48027 12.7753C0.88709 14.5738 0.00418181 16.9028 0 19.3179C0.0322837 21.7636 0.961466 24.11 2.60726 25.9018C4.54218 27.932 7.35475 28.9704 10.968 28.9704C14.4335 28.9705 17.8724 28.3591 21.1302 27.1635C24.3876 28.3616 27.8263 28.9765 31.2923 28.9808C34.885 28.9808 37.7181 27.9424 39.6582 25.9381C41.3016 24.149 42.2306 21.8067 42.2654 19.3646V19.3179ZM39.6171 19.3542C39.5749 21.1048 38.9056 22.7803 37.7335 24.0689C36.3118 25.5383 34.1408 26.2808 31.2923 26.2808C27.4408 26.2764 23.6342 25.4446 20.1242 23.8404C18.6752 23.1968 17.2987 22.3978 16.0183 21.4571C15.9829 21.4298 15.9547 21.3942 15.9361 21.3533C15.9285 21.3173 15.9285 21.2802 15.9361 21.2442V15.6469C15.9363 15.5976 15.9497 15.5493 15.9751 15.5072C16.0004 15.4651 16.0366 15.4308 16.0799 15.408L21.0275 12.8118C21.0654 12.7914 21.1077 12.7807 21.1507 12.7807C21.1936 12.7807 21.236 12.7914 21.2739 12.8118L26.2215 15.408C26.2655 15.4298 26.3024 15.4639 26.3279 15.5062C26.3533 15.5485 26.3663 15.5973 26.3652 15.6469V21.239C26.3642 21.3055 26.3406 21.3697 26.2985 21.4208C25.5365 22.0118 24.7241 22.5331 23.8709 22.9785C25.0774 23.3477 26.3091 23.6271 27.5559 23.8144C27.8587 23.6016 28.0179 23.4666 28.0333 23.4562C28.3358 23.1764 28.5781 22.8365 28.745 22.4577C28.9119 22.0789 28.9999 21.6693 29.0033 21.2546V15.6469C29.0054 15.1039 28.8588 14.571 28.5798 14.1073C28.3007 13.6435 27.9002 13.267 27.4225 13.0195L22.4748 10.4545C22.063 10.2396 21.6064 10.1274 21.143 10.1274C20.6796 10.1274 20.2229 10.2396 19.8111 10.4545L14.8481 13.0195C14.3691 13.2658 13.9671 13.6419 13.6871 14.1058C13.4071 14.5698 13.26 15.1033 13.2622 15.6469V21.239C13.2656 21.6537 13.3535 22.0633 13.5204 22.4421C13.6873 22.8209 13.9296 23.1608 14.2322 23.4406H14.263C15.2524 24.2109 16.3088 24.8887 17.4194 25.4656C15.3081 25.9902 13.142 26.2552 10.968 26.2548C8.11435 26.2548 5.94847 25.5123 4.52679 24.0429C3.35256 22.7561 2.68439 21.0791 2.64832 19.3282V19.2867C2.65374 17.3995 3.39754 15.5912 4.71708 14.2572C6.03663 12.9233 7.82456 12.1721 9.69 12.168H10.7781L10.9988 11.1087C11.4535 8.72708 12.7137 6.57989 14.5629 5.03586C16.4121 3.49184 18.735 2.64732 21.1327 2.64732C23.5304 2.64732 25.8533 3.49184 27.7025 5.03586C29.5518 6.57989 30.8119 8.72708 31.2667 11.1087L31.4771 12.1888H32.5549C34.4235 12.1915 36.2148 12.9433 37.5366 14.2795C38.8583 15.6158 39.6028 17.4275 39.6069 19.3179V19.3542H39.6171Z" fill="#1D97FF"/>
</g>
<defs>
<clipPath id="clip0">
<rect width="200" height="28.9474" fill="white"/>
</clipPath>
</defs>
</svg>
